^C:\USERS\ISSH08\APPDATA\LOCAL\TEMPORARY PROJECTS\TAXCODESBYPRECINCT\MY PROJECT\RESOURCES.RESX
^F:\HERM05\VISUAL STUDIO 2010\PROJECTS\TAXCODESBYPRECINCT\TAXCODESBYPRECINCT\MY PROJECT\RESOURCES.RESX
F:\HERM05\VISUAL STUDIO 2010\PROJECTS\TAXCODESBYPRECINCT\TAXCODESBYPRECINCT\OBJ\DEBUG\TAXCODESBYPRECINCT.RESOURCES.RESOURCES
